{"failedCount":0,"prefixedPath":"src\/test\/java\/features\/queryParams.feature","packageQualifiedName":"src.test.java.features.queryParams","loopIndex":-1,"relativePath":"src\/test\/java\/features\/queryParams.feature","scenarioResults":[{"sectionIndex":0,"stepResults":[{"result":{"nanos":82199700,"millis":82.1997,"status":"passed"},"step":{"line":7,"prefix":"Given","index":0,"text":"url 'https:\/\/reqres.in\/api\/users\/'"}},{"result":{"nanos":80842100,"millis":80.8421,"status":"passed"},"step":{"line":9,"prefix":"And","index":1,"text":"def query = {  \"page\" : \"2\" }"}},{"result":{"nanos":41206201,"millis":41.206201,"status":"passed"},"step":{"line":11,"prefix":"And","index":2,"text":"params query"}},{"result":{"nanos":1429498500,"millis":1429.4985,"status":"passed"},"step":{"line":12,"prefix":"When","index":3,"text":"method get"},"stepLog":"16:57:58.518 request:\n1 > GET https:\/\/reqres.in\/api\/users\/?page=2\n1 > Host: reqres.in\n1 > Connection: Keep-Alive\n1 > User-Agent: Apache-HttpClient\/4.5.14 (Java\/17.0.3)\n1 > Accept-Encoding: gzip,deflate\n\n\n16:57:59.447 response time in milliseconds: 912\n1 < 200\n1 < Date: Tue, 07 Feb 2023 11:27:57 GMT\n1 < Content-Type: application\/json; charset=utf-8\n1 < Transfer-Encoding: chunked\n1 < Connection: keep-alive\n1 < X-Powered-By: Express\n1 < Access-Control-Allow-Origin: *\n1 < Etag: W\/\"406-ut0vzoCuidvyMf8arZpMpJ6ZRDw\"\n1 < Via: 1.1 vegur\n1 < Cache-Control: max-age=14400\n1 < CF-Cache-Status: REVALIDATED\n1 < Report-To: {\"endpoints\":[{\"url\":\"https:\\\/\\\/a.nel.cloudflare.com\\\/report\\\/v3?s=F4veLhKhVnbG8IJlQL8%2F5Xneohuo5tSdbxeXmCJBTrElKJs4M7oJXfJWj6jaNhVeFMXpb8UKMA0oZGjvs%2FmH2V0%2FmghduRr%2BGhgxsl2EapRcAezi%2BPBIAjokPg%3D%3D\"}],\"group\":\"cf-nel\",\"max_age\":604800}\n1 < NEL: {\"success_fraction\":0,\"report_to\":\"cf-nel\",\"max_age\":604800}\n1 < Vary: Accept-Encoding\n1 < Server: cloudflare\n1 < CF-RAY: 795bc77d59ca85a8-BOM\n{\"page\":2,\"per_page\":6,\"total\":12,\"total_pages\":2,\"data\":[{\"id\":7,\"email\":\"michael.lawson@reqres.in\",\"first_name\":\"Michael\",\"last_name\":\"Lawson\",\"avatar\":\"https:\/\/reqres.in\/img\/faces\/7-image.jpg\"},{\"id\":8,\"email\":\"lindsay.ferguson@reqres.in\",\"first_name\":\"Lindsay\",\"last_name\":\"Ferguson\",\"avatar\":\"https:\/\/reqres.in\/img\/faces\/8-image.jpg\"},{\"id\":9,\"email\":\"tobias.funke@reqres.in\",\"first_name\":\"Tobias\",\"last_name\":\"Funke\",\"avatar\":\"https:\/\/reqres.in\/img\/faces\/9-image.jpg\"},{\"id\":10,\"email\":\"byron.fields@reqres.in\",\"first_name\":\"Byron\",\"last_name\":\"Fields\",\"avatar\":\"https:\/\/reqres.in\/img\/faces\/10-image.jpg\"},{\"id\":11,\"email\":\"george.edwards@reqres.in\",\"first_name\":\"George\",\"last_name\":\"Edwards\",\"avatar\":\"https:\/\/reqres.in\/img\/faces\/11-image.jpg\"},{\"id\":12,\"email\":\"rachel.howell@reqres.in\",\"first_name\":\"Rachel\",\"last_name\":\"Howell\",\"avatar\":\"https:\/\/reqres.in\/img\/faces\/12-image.jpg\"}],\"support\":{\"url\":\"https:\/\/reqres.in\/#support-heading\",\"text\":\"To keep ReqRes free, contributions towards server costs are appreciated!\"}}\n\n"},{"result":{"nanos":62000,"millis":0.062,"status":"passed"},"step":{"line":14,"prefix":"And","index":4,"text":"status 200"}}],"executorName":"main","line":5,"name":"send queryparams to the get method","description":"","durationMillis":1633.808501,"startTime":1675769277801,"failed":false,"refId":"[1:5]","endTime":1675769279467,"exampleIndex":-1}],"callDepth":0,"name":"sending query params to the request","description":"request may be any  lets see","resultDate":"2023-02-07 04:57:59 pm","durationMillis":1633.808501,"passedCount":1}