{"failedCount":0,"prefixedPath":"src\/test\/java\/features\/queryParams.feature","packageQualifiedName":"src.test.java.features.queryParams","loopIndex":-1,"relativePath":"src\/test\/java\/features\/queryParams.feature","scenarioResults":[{"sectionIndex":0,"stepResults":[{"result":{"nanos":86282700,"millis":86.2827,"status":"passed"},"step":{"line":7,"prefix":"Given","index":0,"text":"url 'https:\/\/reqres.in'"}},{"result":{"nanos":570899,"millis":0.570899,"status":"passed"},"step":{"line":9,"prefix":"And","index":1,"text":"path '\/api\/users\/'"}},{"result":{"nanos":68811399,"millis":68.811399,"status":"passed"},"step":{"line":10,"prefix":"And","index":2,"text":"def query = {  \"page\" : \"2\" }"}},{"result":{"nanos":42299600,"millis":42.2996,"status":"passed"},"step":{"line":12,"prefix":"And","index":3,"text":"params query"}},{"result":{"nanos":921096100,"millis":921.0961,"status":"passed"},"step":{"line":13,"prefix":"When","index":4,"text":"method get"},"stepLog":"17:05:25.618 request:\n1 > GET https:\/\/reqres.in\/api\/users?page=2\n1 > Host: reqres.in\n1 > Connection: Keep-Alive\n1 > User-Agent: Apache-HttpClient\/4.5.14 (Java\/17.0.3)\n1 > Accept-Encoding: gzip,deflate\n\n\n17:05:26.038 response time in milliseconds: 413\n1 < 200\n1 < Date: Tue, 07 Feb 2023 11:35:24 GMT\n1 < Content-Type: application\/json; charset=utf-8\n1 < Transfer-Encoding: chunked\n1 < Connection: keep-alive\n1 < X-Powered-By: Express\n1 < Access-Control-Allow-Origin: *\n1 < Etag: W\/\"406-ut0vzoCuidvyMf8arZpMpJ6ZRDw\"\n1 < Via: 1.1 vegur\n1 < Cache-Control: max-age=14400\n1 < CF-Cache-Status: HIT\n1 < Age: 3608\n1 < Report-To: {\"endpoints\":[{\"url\":\"https:\\\/\\\/a.nel.cloudflare.com\\\/report\\\/v3?s=DbJbIMM2rT1WjqKVeesLCjT280%2FVpVlbEamgJ9NQ%2FXWoI2%2BLmG7Y49y%2Bf%2BYzjTAdoAjpck7vu%2FRQYdb2V1yu3qmXPV8G4pGGlbgxW12VENi8Y%2ByZDZnTJEFeKQ%3D%3D\"}],\"group\":\"cf-nel\",\"max_age\":604800}\n1 < NEL: {\"success_fraction\":0,\"report_to\":\"cf-nel\",\"max_age\":604800}\n1 < Vary: Accept-Encoding\n1 < Server: cloudflare\n1 < CF-RAY: 795bd267b84e84ce-BOM\n{\"page\":2,\"per_page\":6,\"total\":12,\"total_pages\":2,\"data\":[{\"id\":7,\"email\":\"michael.lawson@reqres.in\",\"first_name\":\"Michael\",\"last_name\":\"Lawson\",\"avatar\":\"https:\/\/reqres.in\/img\/faces\/7-image.jpg\"},{\"id\":8,\"email\":\"lindsay.ferguson@reqres.in\",\"first_name\":\"Lindsay\",\"last_name\":\"Ferguson\",\"avatar\":\"https:\/\/reqres.in\/img\/faces\/8-image.jpg\"},{\"id\":9,\"email\":\"tobias.funke@reqres.in\",\"first_name\":\"Tobias\",\"last_name\":\"Funke\",\"avatar\":\"https:\/\/reqres.in\/img\/faces\/9-image.jpg\"},{\"id\":10,\"email\":\"byron.fields@reqres.in\",\"first_name\":\"Byron\",\"last_name\":\"Fields\",\"avatar\":\"https:\/\/reqres.in\/img\/faces\/10-image.jpg\"},{\"id\":11,\"email\":\"george.edwards@reqres.in\",\"first_name\":\"George\",\"last_name\":\"Edwards\",\"avatar\":\"https:\/\/reqres.in\/img\/faces\/11-image.jpg\"},{\"id\":12,\"email\":\"rachel.howell@reqres.in\",\"first_name\":\"Rachel\",\"last_name\":\"Howell\",\"avatar\":\"https:\/\/reqres.in\/img\/faces\/12-image.jpg\"}],\"support\":{\"url\":\"https:\/\/reqres.in\/#support-heading\",\"text\":\"To keep ReqRes free, contributions towards server costs are appreciated!\"}}\n\n"},{"result":{"nanos":87299,"millis":0.087299,"status":"passed"},"step":{"line":15,"prefix":"And","index":5,"text":"status 200"}}],"executorName":"main","line":5,"name":"send queryparams to the get method","description":"","durationMillis":1119.147997,"startTime":1675769724912,"failed":false,"refId":"[1:5]","endTime":1675769726048,"exampleIndex":-1}],"callDepth":0,"name":"sending query params to the request","description":"request may be any  lets see","resultDate":"2023-02-07 05:05:26 pm","durationMillis":1119.147997,"passedCount":1}